{"meta":{"status":"success","code":100,"messages":["Success processed"]},"data":[{"id":"794","parent_id":null,"published":"1","ord":"0","name":"Soccer","description":"","has_image":"1","image_src":"https:\/\/www.oneclicket.com\/assets\/front\/images\/mediagallery\/medium\/soccer-ico-big_1.png","url":"https:\/\/www.oneclicket.com\/en\/soccer"},{"id":"795","parent_id":"794","published":"1","ord":"6","name":"Italian Serie A","description":"","has_image":"1","image_src":"https:\/\/www.oneclicket.com\/assets\/front\/images\/mediagallery\/medium\/seriea2020_1.png","url":"https:\/\/www.oneclicket.com\/en\/italian-serie-a"},{"id":"796","parent_id":"794","published":"1","ord":"14","name":"French Ligue 1","description":"","has_image":"1","image_src":"https:\/\/www.oneclicket.com\/assets\/front\/images\/mediagallery\/medium\/ligue1.png","url":"https:\/\/www.oneclicket.com\/en\/french-ligue-1"},{"id":"801","parent_id":null,"published":"1","ord":"1","name":"Tennis","description":"","has_image":"1","image_src":"https:\/\/www.oneclicket.com\/assets\/front\/images\/mediagallery\/medium\/tennis-ico-big.png","url":"https:\/\/www.oneclicket.com\/en\/tennis"},{"id":"802","parent_id":null,"published":"1","ord":"2","name":"Rugby","description":"","has_image":"1","image_src":"https:\/\/www.oneclicket.com\/assets\/front\/images\/mediagallery\/medium\/rugby-ico-big.png","url":"https:\/\/www.oneclicket.com\/en\/rugby"},{"id":"803","parent_id":"863","published":"1","ord":"0","name":"MotoGP","description":"","has_image":"1","image_src":"https:\/\/www.oneclicket.com\/assets\/front\/images\/mediagallery\/medium\/1280px-Moto_Gp_logo.svg.png","url":"https:\/\/www.oneclicket.com\/en\/motogp"},{"id":"805","parent_id":"863","published":"1","ord":"1","name":"Formula 1","description":"","has_image":"1","image_src":"https:\/\/www.oneclicket.com\/assets\/front\/images\/mediagallery\/medium\/New_era_F1_logo.svg.png","url":"https:\/\/www.oneclicket.com\/en\/formula-1"},{"id":"806","parent_id":null,"published":"1","ord":"5","name":"Other sports","description":"","has_image":"1","image_src":"https:\/\/www.oneclicket.com\/assets\/front\/images\/mediagallery\/medium\/20140829_Oneclicket-parti-sito-17.png","url":"https:\/\/www.oneclicket.com\/en\/other-sports"},{"id":"807","parent_id":"794","published":"1","ord":"0","name":"Champions League","description":"","has_image":"1","image_src":"https:\/\/www.oneclicket.com\/assets\/front\/images\/mediagallery\/medium\/champions-league-logo_1.png","url":"https:\/\/www.oneclicket.com\/en\/champions-league"},{"id":"808","parent_id":"794","published":"1","ord":"2","name":"Europa League","description":"","has_image":"1","image_src":"https:\/\/www.oneclicket.com\/assets\/front\/images\/mediagallery\/medium\/europa-league-logo_1.png","url":"https:\/\/www.oneclicket.com\/en\/europa-league"},{"id":"809","parent_id":"802","published":"1","ord":"0","name":"Guinness Six Nations","description":"","has_image":"1","image_src":"https:\/\/www.oneclicket.com\/assets\/front\/images\/mediagallery\/medium\/6nat2019_1.jpg","url":"https:\/\/www.oneclicket.com\/en\/guinness-six-nations"},{"id":"814","parent_id":"794","published":"1","ord":"44","name":"Friendly Matches","description":"","has_image":"1","image_src":"https:\/\/www.oneclicket.com\/assets\/front\/images\/mediagallery\/medium\/friendly_1.png","url":"https:\/\/www.oneclicket.com\/en\/friendly-matches"},{"id":"819","parent_id":null,"published":"1","ord":"0","name":"Blog","description":"","has_image":"0","image_src":"","url":"https:\/\/www.oneclicket.com\/en\/posts"},{"id":"821","parent_id":"801","published":"1","ord":"10","name":"Roland Garros","description":"","has_image":"1","image_src":"https:\/\/www.oneclicket.com\/assets\/front\/images\/mediagallery\/medium\/1200px-Logo_Roland-Garros.svg.png","url":"https:\/\/www.oneclicket.com\/en\/roland-garros"},{"id":"824","parent_id":"801","published":"1","ord":"6","name":"Nitto ATP Finals","description":"","has_image":"1","image_src":"https:\/\/www.oneclicket.com\/assets\/front\/images\/mediagallery\/medium\/atp-logo-36E77F55BF-seeklogo.com.png","url":"https:\/\/www.oneclicket.com\/en\/nitto-atp-finals"},{"id":"825","parent_id":"801","published":"1","ord":"0","name":"Rolex Monte-Carlo Masters","description":"","has_image":"1","image_src":"https:\/\/www.oneclicket.com\/assets\/front\/images\/mediagallery\/medium\/montecarlorolex.png","url":"https:\/\/www.oneclicket.com\/en\/rolex-monte-carlo-masters"},{"id":"826","parent_id":null,"published":"1","ord":"0","name":"Teams","description":"","has_image":"0","image_src":"","url":"https:\/\/www.oneclicket.com\/en\/teams"},{"id":"827","parent_id":"801","published":"1","ord":"5","name":"Rolex Paris Masters","description":"","has_image":"1","image_src":"https:\/\/www.oneclicket.com\/assets\/front\/images\/mediagallery\/medium\/Rolex_Paris_Masters_tournament_logo.jpg","url":"https:\/\/www.oneclicket.com\/en\/rolex-paris-masters"},{"id":"828","parent_id":"801","published":"1","ord":"9","name":"Italian Open - BNL","description":"","has_image":"1","image_src":"https:\/\/www.oneclicket.com\/assets\/front\/images\/mediagallery\/medium\/1200px-Logo_Masters_Rom.svg.png","url":"https:\/\/www.oneclicket.com\/en\/italian-open-bnl"},{"id":"839","parent_id":"794","published":"1","ord":"23","name":"Coppa Italia","description":"","has_image":"1","image_src":"https:\/\/www.oneclicket.com\/assets\/front\/images\/mediagallery\/medium\/Coppa_Italia_Frecciarossa_(2021-2022).png","url":"https:\/\/www.oneclicket.com\/en\/coppa-italia"}],"pagination":{"total_items":"80","total_pages":4,"current_page":1,"limit":20}}